<?xml version="1.0" encoding="UTF-8" standalone="no"?>
<!-- Created with Inkscape (http://www.inkscape.org/) -->

<svg
   version="1.1"
   id="svg2"
   xml:space="preserve"
   width="210mm"
   height="148mm"
   viewBox="0 0 793.70077 559.37007"
   sodipodi:docname="parametric.svg"
   inkscape:version="1.1.2 (1:1.1+202202050950+0a00cf5339)"
   xmlns:inkscape="http://www.inkscape.org/namespaces/inkscape"
   xmlns:sodipodi="http://sodipodi.sourceforge.net/DTD/sodipodi-0.dtd"
   xmlns="http://www.w3.org/2000/svg"
   xmlns:svg="http://www.w3.org/2000/svg"><defs
     id="defs6"><rect
       x="270.65067"
       y="387.76907"
       width="326.48999"
       height="255.14597"
       id="rect26271" /><rect
       x="269.82791"
       y="379.8371"
       width="341.00287"
       height="246.73483"
       id="rect19577" /><clipPath
       clipPathUnits="userSpaceOnUse"
       id="clipPath56"><path
         d="M 0,841.89 H 595.276 V 0 H 0 Z"
         id="path54" /></clipPath><clipPath
       clipPathUnits="userSpaceOnUse"
       id="clipPath86"><path
         d="M 0,841.89 H 595.276 V 0 H 0 Z"
         id="path84" /></clipPath></defs><sodipodi:namedview
     id="namedview4"
     pagecolor="#ffffff"
     bordercolor="#666666"
     borderopacity="1.0"
     inkscape:pageshadow="2"
     inkscape:pageopacity="0.0"
     inkscape:pagecheckerboard="0"
     showgrid="false"
     inkscape:zoom="1.1687988"
     inkscape:cx="397.41658"
     inkscape:cy="284.05232"
     inkscape:window-width="1920"
     inkscape:window-height="1022"
     inkscape:window-x="1920"
     inkscape:window-y="28"
     inkscape:window-maximized="1"
     inkscape:current-layer="g8"
     inkscape:snap-midpoints="true"
     inkscape:snap-smooth-nodes="true"
     inkscape:snap-intersection-paths="true"
     inkscape:object-paths="true"
     inkscape:snap-text-baseline="true"
     inkscape:snap-center="true"
     inkscape:snap-object-midpoints="true"
     inkscape:snap-page="true"
     inkscape:snap-bbox="true"
     inkscape:bbox-paths="true"
     inkscape:bbox-nodes="true"
     inkscape:snap-bbox-edge-midpoints="true"
     inkscape:snap-bbox-midpoints="true"
     units="mm"
     inkscape:document-units="mm" /><g
     id="g8"
     inkscape:groupmode="layer"
     inkscape:label="mike"
     transform="matrix(1.3333333,0,0,-1.3333333,0,1122.52)"><g
       id="g38869"
       transform="translate(-2.1728346e-4,76.833389)"><path
         d="m 316.06257,641.55549 c 0,31.311 -25.382,56.693 -56.692,56.693 -31.311,0 -56.693,-25.382 -56.693,-56.693 0,-31.311 25.382,-56.693 56.693,-56.693 31.31,0 56.692,25.382 56.692,56.693 z"
         style="fill:#00cc00;stroke:none;stroke-width:1;stroke-linecap:butt;stroke-linejoin:miter;stroke-miterlimit:4;stroke-dasharray:none;stroke-opacity:1"
         id="path94" /><g
         id="g96"
         transform="translate(231.02397,655.72889)"
         style="fill:#ffffff;stroke:none"><path
           d="M 0,0 C 0,15.655 12.691,28.346 28.346,28.346 44.001,28.346 56.692,15.655 56.692,0 56.692,-15.655 44.001,-28.346 28.346,-28.346 12.691,-28.346 0,-15.655 0,0 Z"
           style="fill:#ffffff;stroke:none;stroke-width:1;stroke-linecap:butt;stroke-linejoin:miter;stroke-miterlimit:4;stroke-dasharray:none;stroke-opacity:1"
           id="path98" /></g><g
         id="g100"
         transform="translate(245.19687,655.72889)"
         style="fill:#000000;stroke:none"><path
           d="M 0,0 C 0,7.828 6.345,14.173 14.173,14.173 22,14.173 28.346,7.828 28.346,0 28.346,-7.828 22,-14.173 14.173,-14.173 6.345,-14.173 0,-7.828 0,0 Z"
           style="fill:#000000;stroke:none;stroke-width:1;stroke-linecap:butt;stroke-linejoin:miter;stroke-miterlimit:4;stroke-dasharray:none;stroke-opacity:1"
           id="path102" /></g></g><text
       xml:space="preserve"
       transform="matrix(0.75000002,0,0,-0.75000002,0,841.89002)"
       id="text19575"
       style="font-size:12px;line-height:1.25;font-family:sans-serif;letter-spacing:0px;word-spacing:0px;white-space:pre;shape-inside:url(#rect19577)" /><g
       id="g38339"
       transform="translate(60.944949,236.49928)"><g
         id="g10"
         transform="translate(141.7319,538.5825)"><path
           d="M 0,0 V -113.386"
           style="fill:none;stroke:#918f90;stroke-width:0.25;stroke-linecap:butt;stroke-linejoin:miter;stroke-miterlimit:4;stroke-dasharray:none;stroke-opacity:1"
           id="path12" /></g><g
         id="g14"
         transform="translate(170.0786,538.5825)"><path
           d="M 0,0 V -113.386"
           style="fill:none;stroke:#918f90;stroke-width:0.25;stroke-linecap:butt;stroke-linejoin:miter;stroke-miterlimit:4;stroke-dasharray:none;stroke-opacity:1"
           id="path16" /></g><g
         id="g18"
         transform="translate(198.4248,538.5825)"><path
           d="M 0,0 V -113.386"
           style="fill:none;stroke:#918f90;stroke-width:0.25;stroke-linecap:butt;stroke-linejoin:miter;stroke-miterlimit:4;stroke-dasharray:none;stroke-opacity:1"
           id="path20" /></g><g
         id="g22"
         transform="translate(226.771,538.5825)"><path
           d="M 0,0 V -113.386"
           style="fill:none;stroke:#918f90;stroke-width:0.25;stroke-linecap:butt;stroke-linejoin:miter;stroke-miterlimit:4;stroke-dasharray:none;stroke-opacity:1"
           id="path24" /></g><g
         id="g26"
         transform="translate(255.1177,538.5825)"><path
           d="M 0,0 V -113.386"
           style="fill:none;stroke:#918f90;stroke-width:0.25;stroke-linecap:butt;stroke-linejoin:miter;stroke-miterlimit:4;stroke-dasharray:none;stroke-opacity:1"
           id="path28" /></g><g
         id="g30"
         transform="translate(141.7319,538.5825)"><path
           d="M 0,0 H 113.386"
           style="fill:none;stroke:#918f90;stroke-width:0.25;stroke-linecap:butt;stroke-linejoin:miter;stroke-miterlimit:4;stroke-dasharray:none;stroke-opacity:1"
           id="path32" /></g><g
         id="g34"
         transform="translate(141.7314,510.2363)"><path
           d="M 0,0 H 113.386"
           style="fill:none;stroke:#918f90;stroke-width:0.25;stroke-linecap:butt;stroke-linejoin:miter;stroke-miterlimit:4;stroke-dasharray:none;stroke-opacity:1"
           id="path36" /></g><g
         id="g38"
         transform="translate(141.7314,481.8896)"><path
           d="M 0,0 H 113.386"
           style="fill:none;stroke:#918f90;stroke-width:0.25;stroke-linecap:butt;stroke-linejoin:miter;stroke-miterlimit:4;stroke-dasharray:none;stroke-opacity:1"
           id="path40" /></g><g
         id="g42"
         transform="translate(141.7314,453.5435)"><path
           d="M 0,0 H 113.386"
           style="fill:none;stroke:#918f90;stroke-width:0.25;stroke-linecap:butt;stroke-linejoin:miter;stroke-miterlimit:4;stroke-dasharray:none;stroke-opacity:1"
           id="path44" /></g><g
         id="g46"
         transform="translate(141.7319,496.063)"><path
           d="M 0,0 H 113.386"
           style="fill:none;stroke:#918f90;stroke-width:0.25;stroke-linecap:butt;stroke-linejoin:miter;stroke-miterlimit:4;stroke-dasharray:none;stroke-opacity:1"
           id="path48" /></g><path
         d="m 141.7319,425.1968 h 113.386"
         style="fill:none;stroke:#918f90;stroke-width:0.25;stroke-linecap:butt;stroke-linejoin:miter;stroke-miterlimit:4;stroke-dasharray:none;stroke-opacity:1"
         id="path76" /><g
         id="g2064"
         transform="translate(141.7319,523.94114)"><path
           d="M 0,0 H 113.386"
           style="fill:none;stroke:#918f90;stroke-width:0.25;stroke-linecap:butt;stroke-linejoin:miter;stroke-miterlimit:4;stroke-dasharray:none;stroke-opacity:1"
           id="path2062" /></g><g
         id="g2068"
         transform="translate(141.7314,467.10593)"><path
           d="M 0,0 H 113.386"
           style="fill:none;stroke:#918f90;stroke-width:0.25;stroke-linecap:butt;stroke-linejoin:miter;stroke-miterlimit:4;stroke-dasharray:none;stroke-opacity:1"
           id="path2066" /></g><g
         id="g2072"
         transform="translate(141.7314,438.75923)"><path
           d="M 0,0 H 113.386"
           style="fill:none;stroke:#918f90;stroke-width:0.25;stroke-linecap:butt;stroke-linejoin:miter;stroke-miterlimit:4;stroke-dasharray:none;stroke-opacity:1"
           id="path2070" /></g><g
         id="g2076"
         transform="rotate(-90,375.5902,162.45274)"><path
           d="m -0.53956,0 h 113.3857"
           style="fill:none;stroke:#918f90;stroke-width:0.25;stroke-linecap:butt;stroke-linejoin:miter;stroke-miterlimit:4;stroke-dasharray:none;stroke-opacity:1"
           id="path2074"
           sodipodi:nodetypes="cc" /></g><g
         id="g2080"
         transform="rotate(-90,389.52927,148.51367)"><path
           d="m -0.53956,0 h 113.3857"
           style="fill:none;stroke:#918f90;stroke-width:0.25;stroke-linecap:butt;stroke-linejoin:miter;stroke-miterlimit:4;stroke-dasharray:none;stroke-opacity:1"
           id="path2078"
           sodipodi:nodetypes="cc" /></g><g
         id="g2084"
         transform="rotate(-90,361.11191,176.93152)"><path
           d="m -0.53907,0 h 113.3857"
           style="fill:none;stroke:#918f90;stroke-width:0.25;stroke-linecap:butt;stroke-linejoin:miter;stroke-miterlimit:4;stroke-dasharray:none;stroke-opacity:1"
           id="path2082"
           sodipodi:nodetypes="cc" /></g><g
         id="g2088"
         transform="rotate(-90,346.93857,191.10487)"><path
           d="m -0.53906,0 h 113.3857"
           style="fill:none;stroke:#918f90;stroke-width:0.25;stroke-linecap:butt;stroke-linejoin:miter;stroke-miterlimit:4;stroke-dasharray:none;stroke-opacity:1"
           id="path2086"
           sodipodi:nodetypes="cc" /></g></g><path
       d="m 137.47965,721.22388 c 0,1.566 1.269,2.835 2.835,2.835 1.566,0 2.835,-1.269 2.835,-2.835 0,-1.566 -1.269,-2.835 -2.835,-2.835 -1.566,0 -2.835,1.269 -2.835,2.835"
       style="fill:#f68712;fill-opacity:1;fill-rule:nonzero;stroke:none"
       id="path66" /><path
       d="m 316.06295,792.08928 h -110.551 v 2.834 h 110.551 z"
       style="fill:#f68712;fill-opacity:1;fill-rule:nonzero;stroke:none"
       id="path68" /><path
       d="m 344.40895,775.08328 h 28.346 v -28.347 h -28.346 z"
       style="fill:#231f20;fill-opacity:1;fill-rule:nonzero;stroke:none"
       id="path104" /><path
       d="m 372.75595,746.73628 h 28.346 v -28.347 h -28.346 z"
       style="fill:#231f20;fill-opacity:1;fill-rule:nonzero;stroke:none"
       id="path106" /><path
       d="m 344.40995,718.39028 h 28.346 v -28.347 h -28.346 z"
       style="fill:#231f20;fill-opacity:1;fill-rule:nonzero;stroke:none"
       id="path108" /><path
       d="m 372.75695,690.04328 h 28.346 v -28.347 h -28.346 z"
       style="fill:#231f20;fill-opacity:1;fill-rule:nonzero;stroke:none"
       id="path110" /><path
       d="m 429.44795,746.73628 h 14.173 v -14.173 h -14.173 z"
       style="fill:#231f20;fill-opacity:1;fill-rule:nonzero;stroke:none"
       id="path128" /><path
       d="m 443.62095,732.56228 h 14.173 v -14.173 h -14.173 z"
       style="fill:#231f20;fill-opacity:1;fill-rule:nonzero;stroke:none"
       id="path130" /><path
       d="m 429.44995,775.08228 h 14.172 v -14.173 h -14.172 z"
       style="fill:#231f20;fill-opacity:1;fill-rule:nonzero;stroke:none"
       id="path132" /><path
       d="m 443.62195,760.90928 h 14.174 v -14.173 h -14.174 z"
       style="fill:#231f20;fill-opacity:1;fill-rule:nonzero;stroke:none"
       id="path134" /><path
       d="m 429.44795,690.04228 h 14.172 v -14.173 h -14.172 z"
       style="fill:#231f20;fill-opacity:1;fill-rule:nonzero;stroke:none"
       id="path136" /><path
       d="m 443.61995,675.86928 h 14.174 v -14.173 h -14.174 z"
       style="fill:#231f20;fill-opacity:1;fill-rule:nonzero;stroke:none"
       id="path138" /><path
       d="m 429.44995,718.38928 h 14.172 v -14.173 h -14.172 z"
       style="fill:#231f20;fill-opacity:1;fill-rule:nonzero;stroke:none"
       id="path140" /><path
       d="m 443.62195,704.21628 h 14.174 v -14.173 h -14.174 z"
       style="fill:#231f20;fill-opacity:1;fill-rule:nonzero;stroke:none"
       id="path142" /><path
       d="m 256.53475,718.38888 c 0,1.566 1.269,2.835 2.835,2.835 1.566,0 2.835,-1.269 2.835,-2.835 0,-1.566 -1.269,-2.835 -2.835,-2.835 -1.566,0 -2.835,1.269 -2.835,2.835"
       style="fill:#f68712;fill-opacity:1;fill-rule:nonzero;stroke:none"
       id="path158" /><text
       xml:space="preserve"
       style="font-size:9px;line-height:1.25;font-family:sans-serif;letter-spacing:0px;word-spacing:0px;stroke-width:0.75"
       x="146.38982"
       y="-718.80811"
       id="text9618"
       transform="scale(1,-1)"><tspan
         sodipodi:role="line"
         id="tspan9616"
         style="stroke-width:0.75"
         x="146.38982"
         y="-718.80811">(x, y)</tspan></text><text
       xml:space="preserve"
       style="font-size:9px;line-height:1.25;font-family:sans-serif;letter-spacing:0px;word-spacing:0px;stroke-width:0.75"
       x="257.10703"
       y="-803.15009"
       id="text9618-3"
       transform="scale(1,-1)"><tspan
         sodipodi:role="line"
         id="tspan9616-3"
         style="stroke-width:0.75"
         x="257.10703"
         y="-803.15009">w</tspan></text><path
       d="m 372.56676,792.08928 h -27.96395 v 2.834 h 27.96395 z"
       style="fill:#f68712;fill-opacity:1;fill-rule:nonzero;stroke:none;stroke-width:0.502943"
       id="path10957" /><text
       xml:space="preserve"
       style="font-size:9px;line-height:1.25;font-family:sans-serif;letter-spacing:0px;word-spacing:0px;stroke-width:0.75"
       x="350.58893"
       y="-802.74799"
       id="text10961"
       transform="scale(1,-1)"><tspan
         sodipodi:role="line"
         id="tspan10959"
         style="stroke-width:0.75"
         x="350.58893"
         y="-802.74799">w/4</tspan></text><path
       d="m 443.56383,792.08928 h -14.49049 v 2.834 h 14.49049 z"
       style="fill:#f68712;fill-opacity:1;fill-rule:nonzero;stroke:none;stroke-width:0.362044"
       id="path13123" /><text
       xml:space="preserve"
       style="font-size:9px;line-height:1.25;font-family:sans-serif;letter-spacing:0px;word-spacing:0px;stroke-width:0.75"
       x="429.05945"
       y="-802.74799"
       id="text13127"
       transform="scale(1,-1)"><tspan
         sodipodi:role="line"
         id="tspan13125"
         style="stroke-width:0.75"
         x="429.05945"
         y="-802.74799">w/8</tspan></text><path
       d="m 137.47965,704.35098 c 0,1.566 1.269,2.835 2.835,2.835 1.566,0 2.835,-1.269 2.835,-2.835 0,-1.566 -1.269,-2.835 -2.835,-2.835 -1.566,0 -2.835,1.269 -2.835,2.835"
       style="fill:#d63384;fill-opacity:1;fill-rule:nonzero;stroke:none"
       id="path34613" /><text
       xml:space="preserve"
       style="font-size:9px;line-height:1.25;font-family:sans-serif;letter-spacing:0px;word-spacing:0px;stroke-width:0.75"
       x="146.38982"
       y="-701.93524"
       id="text34617"
       transform="scale(1,-1)"><tspan
         sodipodi:role="line"
         id="tspan34615"
         style="stroke-width:0.75"
         x="146.38982"
         y="-701.93524">(x, y-w/8)</tspan></text><path
       d="m 256.62392,732.32285 c 0,1.566 1.269,2.835 2.835,2.835 1.566,0 2.835,-1.269 2.835,-2.835 0,-1.566 -1.269,-2.835 -2.835,-2.835 -1.566,0 -2.835,1.269 -2.835,2.835"
       style="fill:#d63384;fill-opacity:1;fill-rule:nonzero;stroke:none"
       id="path37111" /><text
       xml:space="preserve"
       transform="matrix(0.75000002,0,0,-0.75000002,-2.1728346e-4,918.72341)"
       id="text26269"
       style="font-style:normal;font-variant:normal;font-weight:normal;font-stretch:normal;font-size:18.6667px;line-height:1.25;font-family:Iosevka;-inkscape-font-specification:Iosevka;letter-spacing:0px;word-spacing:0px;white-space:pre;shape-inside:url(#rect26271)"><tspan
         x="270.65039"
         y="404.70444"
         id="tspan39850">  // body
</tspan><tspan
         x="270.65039"
         y="428.03782"
         id="tspan39852">  fill(0, 200, 0);
</tspan><tspan
         x="270.65039"
         y="451.37119"
         id="tspan39854">  ellipse(x, y, w, w);
</tspan><tspan
         x="270.65039"
         y="474.70457"
         id="tspan39856">
</tspan><tspan
         x="270.65039"
         y="498.03794"
         id="tspan39858">  // eye
</tspan><tspan
         x="270.65039"
         y="521.37131"
         id="tspan39860">  fill(255);
</tspan><tspan
         x="270.65039"
         y="544.70469"
         id="tspan39862">  ellipse(x, y-w/8, w/2, w/2);
</tspan><tspan
         x="270.65039"
         y="568.03806"
         id="tspan39864">  
</tspan><tspan
         x="270.65039"
         y="591.37144"
         id="tspan39866">  fill(0);
</tspan><tspan
         x="270.65039"
         y="614.70481"
         id="tspan39868">  ellipse(x, y-w/8, w/4, w/4);</tspan></text></g></svg>
